<?xml version="1.0" encoding="UTF-8" standalone="no"?>
<!-- Created with Inkscape (http://www.inkscape.org/) -->

<svg
   xmlns:dc="http://purl.org/dc/elements/1.1/"
   xmlns:cc="http://creativecommons.org/ns#"
   xmlns:rdf="http://www.w3.org/1999/02/22-rdf-syntax-ns#"
   xmlns:svg="http://www.w3.org/2000/svg"
   xmlns="http://www.w3.org/2000/svg"
   xmlns:sodipodi="http://sodipodi.sourceforge.net/DTD/sodipodi-0.dtd"
   xmlns:inkscape="http://www.inkscape.org/namespaces/inkscape"
   width="12"
   height="16"
   viewBox="0 0 3.1749998 4.2333333"
   version="1.1"
   id="svg8"
   inkscape:version="0.92.3 (2405546, 2018-03-11)"
   sodipodi:docname="close_down.svg"
   inkscape:export-filename="/home/zawertun/.local/share/yakuake/skins/SierraBreeze/tabs/close_down.png"
   inkscape:export-xdpi="96"
   inkscape:export-ydpi="96">
  <defs
     id="defs2" />
  <sodipodi:namedview
     id="base"
     pagecolor="#ffffff"
     bordercolor="#666666"
     borderopacity="1.0"
     inkscape:pageopacity="0.0"
     inkscape:pageshadow="2"
     inkscape:zoom="22.4"
     inkscape:cx="6.6174847"
     inkscape:cy="8.1031203"
     inkscape:document-units="px"
     inkscape:current-layer="layer1"
     showgrid="false"
     units="px"
     inkscape:window-width="1168"
     inkscape:window-height="1024"
     inkscape:window-x="0"
     inkscape:window-y="0"
     inkscape:window-maximized="0"
     inkscape:pagecheckerboard="true" />
  <metadata
     id="metadata5">
    <rdf:RDF>
      <cc:Work
         rdf:about="">
        <dc:format>image/svg+xml</dc:format>
        <dc:type
           rdf:resource="http://purl.org/dc/dcmitype/StillImage" />
        <dc:title></dc:title>
      </cc:Work>
    </rdf:RDF>
  </metadata>
  <g
     inkscape:label="Layer 1"
     inkscape:groupmode="layer"
     id="layer1"
     transform="translate(0,-292.76666)">
    <g
       id="g834"
       transform="translate(-5.2003478e-8,-2.5613944e-6)">
      <rect
         y="292.76666"
         x="1.9595335e-08"
         height="4.2333331"
         width="3.175"
         id="rect4537"
         style="fill:#475057;fill-opacity:1;stroke:none;stroke-width:0;stroke-miterlimit:4.0999999;stroke-dasharray:none;stroke-opacity:1" />
      <g
         transform="translate(1.9595335e-8,2.014637e-5)"
         id="g1375">
        <circle
           r="1.5875"
           cy="295.41248"
           cx="1.5875"
           id="circle4551"
           style="fill:#f25056;fill-opacity:1;stroke:none;stroke-width:0;stroke-miterlimit:4.0999999;stroke-dasharray:none;stroke-opacity:1" />
        <g
           id="g881"
           transform="translate(-0.07795755,-0.02834505)">
          <path
             inkscape:connector-curvature="0"
             id="path871"
             d="M 1.0276227,296.07867 2.3032923,294.803"
             style="fill:none;stroke:#000000;stroke-width:0.26458332px;stroke-linecap:butt;stroke-linejoin:miter;stroke-opacity:1" />
          <path
             style="fill:none;stroke:#000000;stroke-width:0.26458332px;stroke-linecap:butt;stroke-linejoin:miter;stroke-opacity:1"
             d="M 2.3032925,296.07867 1.0276225,294.803"
             id="path873"
             inkscape:connector-curvature="0" />
        </g>
      </g>
    </g>
  </g>
</svg>
